#Note that DSID: 602495 is only available with p6026
mc20_13TeV.506193.MGPy8EG_Zee_FxFx_3jets_HT2bias_BFilter.deriv.DAOD_PHYS.e8382_s3681_r13167_p6266
mc20_13TeV.506193.MGPy8EG_Zee_FxFx_3jets_HT2bias_BFilter.deriv.DAOD_PHYS.e8382_s3681_r13145_p6266
mc20_13TeV.506193.MGPy8EG_Zee_FxFx_3jets_HT2bias_BFilter.deriv.DAOD_PHYS.e8382_s3681_r13144_p6266
mc20_13TeV.506194.MGPy8EG_Zee_FxFx_3jets_HT2bias_CFilterBVeto.deriv.DAOD_PHYS.e8382_s3681_r13145_p6266
mc20_13TeV.506194.MGPy8EG_Zee_FxFx_3jets_HT2bias_CFilterBVeto.deriv.DAOD_PHYS.e8382_s3681_r13144_p6266
mc20_13TeV.506194.MGPy8EG_Zee_FxFx_3jets_HT2bias_CFilterBVeto.deriv.DAOD_PHYS.e8382_s3681_r13167_p6266
mc20_13TeV.506195.MGPy8EG_Zee_FxFx_3jets_HT2bias_CVetoBVeto.deriv.DAOD_PHYS.e8382_s3681_r13145_p6266
mc20_13TeV.506195.MGPy8EG_Zee_FxFx_3jets_HT2bias_CVetoBVeto.deriv.DAOD_PHYS.e8382_s3681_r13144_p6266
mc20_13TeV.506195.MGPy8EG_Zee_FxFx_3jets_HT2bias_CVetoBVeto.deriv.DAOD_PHYS.e8382_s3681_r13167_p6266
mc20_13TeV.506196.MGPy8EG_Zmumu_FxFx_3jets_HT2bias_BFilter.deriv.DAOD_PHYS.e8382_s3681_r13167_p6266
mc20_13TeV.506196.MGPy8EG_Zmumu_FxFx_3jets_HT2bias_BFilter.deriv.DAOD_PHYS.e8382_s3681_r13144_p6266
mc20_13TeV.506196.MGPy8EG_Zmumu_FxFx_3jets_HT2bias_BFilter.deriv.DAOD_PHYS.e8382_s3681_r13145_p6266
mc20_13TeV.506197.MGPy8EG_Zmumu_FxFx_3jets_HT2bias_CFilterBVeto.deriv.DAOD_PHYS.e8382_s3681_r13145_p6266
mc20_13TeV.506197.MGPy8EG_Zmumu_FxFx_3jets_HT2bias_CFilterBVeto.deriv.DAOD_PHYS.e8382_s3681_r13144_p6266
mc20_13TeV.506197.MGPy8EG_Zmumu_FxFx_3jets_HT2bias_CFilterBVeto.deriv.DAOD_PHYS.e8382_s3681_r13167_p6266
mc20_13TeV.506198.MGPy8EG_Zmumu_FxFx_3jets_HT2bias_CVetoBVeto.deriv.DAOD_PHYS.e8382_s3681_r13167_p6266
mc20_13TeV.506198.MGPy8EG_Zmumu_FxFx_3jets_HT2bias_CVetoBVeto.deriv.DAOD_PHYS.e8382_s3681_r13144_p6266
mc20_13TeV.506198.MGPy8EG_Zmumu_FxFx_3jets_HT2bias_CVetoBVeto.deriv.DAOD_PHYS.e8382_s3681_r13145_p6266
mc20_13TeV.512198.MGPy8EG_FxFx_Ztautau_3jets_HT2bias_BFilter.deriv.DAOD_PHYS.e8382_s3681_r13145_p6266
mc20_13TeV.512198.MGPy8EG_FxFx_Ztautau_3jets_HT2bias_BFilter.deriv.DAOD_PHYS.e8382_s3681_r13144_p6266
mc20_13TeV.512198.MGPy8EG_FxFx_Ztautau_3jets_HT2bias_BFilter.deriv.DAOD_PHYS.e8382_s3681_r13167_p6266
mc20_13TeV.512199.MGPy8EG_FxFx_Ztautau_3jets_HT2bias_CFilterBVeto.deriv.DAOD_PHYS.e8382_s3681_r13144_p6266
mc20_13TeV.512199.MGPy8EG_FxFx_Ztautau_3jets_HT2bias_CFilterBVeto.deriv.DAOD_PHYS.e8382_s3681_r13145_p6266
mc20_13TeV.512199.MGPy8EG_FxFx_Ztautau_3jets_HT2bias_CFilterBVeto.deriv.DAOD_PHYS.e8382_s3681_r13167_p6266
mc20_13TeV.512200.MGPy8EG_FxFx_Ztautau_3jets_HT2bias_CVetoBVeto.deriv.DAOD_PHYS.e8382_s3681_r13167_p6266
mc20_13TeV.512200.MGPy8EG_FxFx_Ztautau_3jets_HT2bias_CVetoBVeto.deriv.DAOD_PHYS.e8382_s3681_r13144_p6266
mc20_13TeV.512200.MGPy8EG_FxFx_Ztautau_3jets_HT2bias_CVetoBVeto.deriv.DAOD_PHYS.e8382_s3681_r13145_p6266
mc20_13TeV.410656.PowhegPythia8EvtGen_A14_Wt_DS_dilepton_top.deriv.DAOD_PHYS.e6615_s3681_r13145_p6266
mc20_13TeV.410656.PowhegPythia8EvtGen_A14_Wt_DS_dilepton_top.deriv.DAOD_PHYS.e6615_s3681_r13144_p6266
mc20_13TeV.410656.PowhegPythia8EvtGen_A14_Wt_DS_dilepton_top.deriv.DAOD_PHYS.e6615_s3681_r13167_p6266
mc20_13TeV.410657.PowhegPythia8EvtGen_A14_Wt_DS_dilepton_antitop.deriv.DAOD_PHYS.e6615_s3681_r13145_p6266
mc20_13TeV.410657.PowhegPythia8EvtGen_A14_Wt_DS_dilepton_antitop.deriv.DAOD_PHYS.e6615_s3681_r13144_p6266
mc20_13TeV.410657.PowhegPythia8EvtGen_A14_Wt_DS_dilepton_antitop.deriv.DAOD_PHYS.e6615_s3681_r13167_p6266
mc20_13TeV.410466.aMcAtNloPy8EvtGen_MEN30NLO_A14N23LO_ttbar_noShWe_AllHadronic.deriv.DAOD_PHYSLITE.e6762_s3681_r13144_p6266
mc20_13TeV.410466.aMcAtNloPy8EvtGen_MEN30NLO_A14N23LO_ttbar_noShWe_AllHadronic.deriv.DAOD_PHYSLITE.e6762_s3681_r13145_p6266
mc20_13TeV.410466.aMcAtNloPy8EvtGen_MEN30NLO_A14N23LO_ttbar_noShWe_AllHadronic.deriv.DAOD_PHYSLITE.e6762_s3681_r13167_p6266
mc20_13TeV.410480.PhPy8EG_A14_ttbar_hdamp517p5_SingleLep.deriv.DAOD_PHYSLITE.e6454_a907_r14859_p6266
mc20_13TeV.410480.PhPy8EG_A14_ttbar_hdamp517p5_SingleLep.deriv.DAOD_PHYSLITE.e6454_a907_r14860_p6266
mc20_13TeV.410480.PhPy8EG_A14_ttbar_hdamp517p5_SingleLep.deriv.DAOD_PHYSLITE.e6454_a907_r14861_p6266
mc20_13TeV.410481.PhPy8EG_A14_ttbar_hdamp517p5_allhad.deriv.DAOD_PHYSLITE.e6520_a907_r14859_p6266
mc20_13TeV.410481.PhPy8EG_A14_ttbar_hdamp517p5_allhad.deriv.DAOD_PHYSLITE.e6520_a907_r14860_p6266
mc20_13TeV.410481.PhPy8EG_A14_ttbar_hdamp517p5_allhad.deriv.DAOD_PHYSLITE.e6520_a907_r14861_p6266
mc20_13TeV.410482.PhPy8EG_A14_ttbar_hdamp517p5_dil.deriv.DAOD_PHYSLITE.e6454_a907_r14860_p6266
mc20_13TeV.410482.PhPy8EG_A14_ttbar_hdamp517p5_dil.deriv.DAOD_PHYSLITE.e6454_a907_r14859_p6266
mc20_13TeV.410482.PhPy8EG_A14_ttbar_hdamp517p5_dil.deriv.DAOD_PHYSLITE.e6454_a907_r14861_p6266
mc20_13TeV.410654.PowhegPythia8EvtGen_A14_Wt_DS_inclusive_top.deriv.DAOD_PHYSLITE.e6552_s3681_r13167_p6266
mc20_13TeV.410654.PowhegPythia8EvtGen_A14_Wt_DS_inclusive_top.deriv.DAOD_PHYSLITE.e6552_s3681_r13145_p6266
mc20_13TeV.410654.PowhegPythia8EvtGen_A14_Wt_DS_inclusive_top.deriv.DAOD_PHYSLITE.e6552_s3681_r13144_p6266
mc20_13TeV.410655.PowhegPythia8EvtGen_A14_Wt_DS_inclusive_antitop.deriv.DAOD_PHYSLITE.e6552_s3681_r13167_p6266
mc20_13TeV.410655.PowhegPythia8EvtGen_A14_Wt_DS_inclusive_antitop.deriv.DAOD_PHYSLITE.e6552_s3681_r13145_p6266
mc20_13TeV.410655.PowhegPythia8EvtGen_A14_Wt_DS_inclusive_antitop.deriv.DAOD_PHYSLITE.e6552_s3681_r13144_p6266
mc20_13TeV.410646.PowhegPythia8EvtGen_A14_Wt_DR_inclusive_top.deriv.DAOD_PHYSLITE.e6552_a907_r14859_p6266
mc20_13TeV.410646.PowhegPythia8EvtGen_A14_Wt_DR_inclusive_top.deriv.DAOD_PHYSLITE.e6552_a907_r14860_p6266
mc20_13TeV.410646.PowhegPythia8EvtGen_A14_Wt_DR_inclusive_top.deriv.DAOD_PHYSLITE.e6552_a907_r14861_p6266
mc20_13TeV.410648.PowhegPythia8EvtGen_A14_Wt_DR_dilepton_top.deriv.DAOD_PHYSLITE.e6615_s3681_r13167_p6266
mc20_13TeV.410648.PowhegPythia8EvtGen_A14_Wt_DR_dilepton_top.deriv.DAOD_PHYSLITE.e6615_s3681_r13144_p6266
mc20_13TeV.410648.PowhegPythia8EvtGen_A14_Wt_DR_dilepton_top.deriv.DAOD_PHYSLITE.e6615_s3681_r13145_p6266
mc20_13TeV.410649.PowhegPythia8EvtGen_A14_Wt_DR_dilepton_antitop.deriv.DAOD_PHYSLITE.e6615_s3681_r13167_p6266
mc20_13TeV.410649.PowhegPythia8EvtGen_A14_Wt_DR_dilepton_antitop.deriv.DAOD_PHYSLITE.e6615_s3681_r13145_p6266
mc20_13TeV.410649.PowhegPythia8EvtGen_A14_Wt_DR_dilepton_antitop.deriv.DAOD_PHYSLITE.e6615_s3681_r13144_p6266
mc20_13TeV.412002.aMcAtNloPythia8EvtGen_HThalfscale_tW_inclusive.deriv.DAOD_PHYSLITE.e6817_a907_r14859_p6266
mc20_13TeV.412002.aMcAtNloPythia8EvtGen_HThalfscale_tW_inclusive.deriv.DAOD_PHYSLITE.e6817_a907_r14861_p6266
mc20_13TeV.412002.aMcAtNloPythia8EvtGen_HThalfscale_tW_inclusive.deriv.DAOD_PHYSLITE.e6817_a907_r14860_p6266
mc20_13TeV.412003.aMcAtNloPythia8EvtGen_HThalfscale_tW_dilepton.deriv.DAOD_PHYSLITE.e6817_a907_r14860_p6266
mc20_13TeV.412003.aMcAtNloPythia8EvtGen_HThalfscale_tW_dilepton.deriv.DAOD_PHYSLITE.e6817_a907_r14859_p6266
mc20_13TeV.412003.aMcAtNloPythia8EvtGen_HThalfscale_tW_dilepton.deriv.DAOD_PHYSLITE.e6817_a907_r14861_p6266
mc20_13TeV.412004.aMcAtNloPy8EG_tchan_NLO.deriv.DAOD_PHYSLITE.e6888_a907_r14861_p6266
mc20_13TeV.412004.aMcAtNloPy8EG_tchan_NLO.deriv.DAOD_PHYSLITE.e6888_a907_r14860_p6266
mc20_13TeV.412004.aMcAtNloPy8EG_tchan_NLO.deriv.DAOD_PHYSLITE.e6888_a907_r14859_p6266
mc20_13TeV.412005.aMcAtNloPythia8EvtGen_A14_singletop_schan_lept.deriv.DAOD_PHYSLITE.e6867_a907_r14861_p6266
mc20_13TeV.412005.aMcAtNloPythia8EvtGen_A14_singletop_schan_lept.deriv.DAOD_PHYSLITE.e6867_a907_r14859_p6266
mc20_13TeV.412005.aMcAtNloPythia8EvtGen_A14_singletop_schan_lept.deriv.DAOD_PHYSLITE.e6867_a907_r14860_p6266
mc20_13TeV.411233.PowhegHerwig7EvtGen_tt_hdamp258p75_713_SingleLep.deriv.DAOD_PHYSLITE.e7580_a907_r14859_p6266
mc20_13TeV.411233.PowhegHerwig7EvtGen_tt_hdamp258p75_713_SingleLep.deriv.DAOD_PHYSLITE.e7580_a907_r14860_p6266
mc20_13TeV.411233.PowhegHerwig7EvtGen_tt_hdamp258p75_713_SingleLep.deriv.DAOD_PHYSLITE.e7580_a907_r14861_p6266
mc20_13TeV.411234.PowhegHerwig7EvtGen_tt_hdamp258p75_713_dil.deriv.DAOD_PHYSLITE.e7580_a907_r14861_p6266
mc20_13TeV.411234.PowhegHerwig7EvtGen_tt_hdamp258p75_713_dil.deriv.DAOD_PHYSLITE.e7580_a907_r14860_p6266
mc20_13TeV.411234.PowhegHerwig7EvtGen_tt_hdamp258p75_713_dil.deriv.DAOD_PHYSLITE.e7580_a907_r14859_p6266
mc20_13TeV.411316.PowhegHerwig7EvtGen_tt_hdamp258p75_713_allhad.deriv.DAOD_PHYSLITE.e7765_a907_r14859_p6266
mc20_13TeV.411316.PowhegHerwig7EvtGen_tt_hdamp258p75_713_allhad.deriv.DAOD_PHYSLITE.e7765_a907_r14860_p6266
mc20_13TeV.411316.PowhegHerwig7EvtGen_tt_hdamp258p75_713_allhad.deriv.DAOD_PHYSLITE.e7765_a907_r14861_p6266
mc20_13TeV.410647.PowhegPythia8EvtGen_A14_Wt_DR_inclusive_antitop.deriv.DAOD_PHYSLITE.e6552_a907_r14859_p6266
mc20_13TeV.410647.PowhegPythia8EvtGen_A14_Wt_DR_inclusive_antitop.deriv.DAOD_PHYSLITE.e6552_a907_r14860_p6266
mc20_13TeV.410647.PowhegPythia8EvtGen_A14_Wt_DR_inclusive_antitop.deriv.DAOD_PHYSLITE.e6552_a907_r14861_p6266
mc20_13TeV.602495.PhPy8EG_NNPDF30_A14_bb4l_alldilepflav_hd1p5mt_wgts.deriv.DAOD_PHYSLITE.e8555_s3797_r13167_p6026
mc20_13TeV.602495.PhPy8EG_NNPDF30_A14_bb4l_alldilepflav_hd1p5mt_wgts.deriv.DAOD_PHYSLITE.e8555_s3797_r13144_p6026
mc20_13TeV.602495.PhPy8EG_NNPDF30_A14_bb4l_alldilepflav_hd1p5mt_wgts.deriv.DAOD_PHYSLITE.e8555_s3797_r13145_p6026
