mc20_13TeV.345061.PowhegPythia8EvtGen_NNPDF3_AZNLO_ggZH125_HgamgamZinc.deriv.DAOD_PHYSLITE.e5762_s3681_r13167_p6490
mc20_13TeV.345061.PowhegPythia8EvtGen_NNPDF3_AZNLO_ggZH125_HgamgamZinc.deriv.DAOD_PHYSLITE.e5762_s3681_r13144_p6490
mc20_13TeV.345061.PowhegPythia8EvtGen_NNPDF3_AZNLO_ggZH125_HgamgamZinc.deriv.DAOD_PHYSLITE.e5762_s3681_r13145_p6490
