mc20_13TeV.508979.MGPy8EG_Wenu_FxFx_3jets_HT2bias_BFilter.deriv.DAOD_PHYS.e8382_s3681_r13144_p6266
mc20_13TeV.508979.MGPy8EG_Wenu_FxFx_3jets_HT2bias_BFilter.deriv.DAOD_PHYS.e8382_s3681_r13145_p6266
mc20_13TeV.508979.MGPy8EG_Wenu_FxFx_3jets_HT2bias_BFilter.deriv.DAOD_PHYS.e8382_s3681_r13167_p6266

mc20_13TeV.508980.MGPy8EG_Wenu_FxFx_3jets_HT2bias_CFilterBVeto.deriv.DAOD_PHYS.e8382_s3681_r13144_p6266
mc20_13TeV.508980.MGPy8EG_Wenu_FxFx_3jets_HT2bias_CFilterBVeto.deriv.DAOD_PHYS.e8382_s3681_r13145_p6266
mc20_13TeV.508980.MGPy8EG_Wenu_FxFx_3jets_HT2bias_CFilterBVeto.deriv.DAOD_PHYS.e8382_s3681_r13167_p6266

mc20_13TeV.508981.MGPy8EG_Wenu_FxFx_3jets_HT2bias_CVetoBVeto.deriv.DAOD_PHYS.e8382_s3681_r13144_p6266
mc20_13TeV.508981.MGPy8EG_Wenu_FxFx_3jets_HT2bias_CVetoBVeto.deriv.DAOD_PHYS.e8382_s3681_r13145_p6266
mc20_13TeV.508981.MGPy8EG_Wenu_FxFx_3jets_HT2bias_CVetoBVeto.deriv.DAOD_PHYS.e8382_s3681_r13167_p6266

mc20_13TeV.508982.MGPy8EG_Wmunu_FxFx_3jets_HT2bias_BFilter.deriv.DAOD_PHYS.e8382_s3681_r13144_p6266
mc20_13TeV.508982.MGPy8EG_Wmunu_FxFx_3jets_HT2bias_BFilter.deriv.DAOD_PHYS.e8382_s3681_r13145_p6266
mc20_13TeV.508982.MGPy8EG_Wmunu_FxFx_3jets_HT2bias_BFilter.deriv.DAOD_PHYS.e8382_s3681_r13167_p6266

mc20_13TeV.508983.MGPy8EG_Wmunu_FxFx_3jets_HT2bias_CFilterBVeto.deriv.DAOD_PHYS.e8382_s3681_r13144_p6266
mc20_13TeV.508983.MGPy8EG_Wmunu_FxFx_3jets_HT2bias_CFilterBVeto.deriv.DAOD_PHYS.e8382_s3681_r13145_p6266
mc20_13TeV.508983.MGPy8EG_Wmunu_FxFx_3jets_HT2bias_CFilterBVeto.deriv.DAOD_PHYS.e8382_s3681_r13167_p6266

mc20_13TeV.508984.MGPy8EG_Wmunu_FxFx_3jets_HT2bias_CVetoBVeto.deriv.DAOD_PHYS.e8382_s3681_r13144_p6266
mc20_13TeV.508984.MGPy8EG_Wmunu_FxFx_3jets_HT2bias_CVetoBVeto.deriv.DAOD_PHYS.e8382_s3681_r13145_p6266
mc20_13TeV.508984.MGPy8EG_Wmunu_FxFx_3jets_HT2bias_CVetoBVeto.deriv.DAOD_PHYS.e8382_s3681_r13167_p6266

mc20_13TeV.509751.MGPy8EG_FxFx_Wtaunu_L_3jets_HT2bias_BFilter.deriv.DAOD_PHYS.e8382_s3681_r13144_p6266
mc20_13TeV.509751.MGPy8EG_FxFx_Wtaunu_L_3jets_HT2bias_BFilter.deriv.DAOD_PHYS.e8382_s3681_r13145_p6266
mc20_13TeV.509751.MGPy8EG_FxFx_Wtaunu_L_3jets_HT2bias_BFilter.deriv.DAOD_PHYS.e8382_s3681_r13167_p6266

mc20_13TeV.509752.MGPy8EG_FxFx_Wtaunu_L_3jets_HT2bias_CFilterBVeto.deriv.DAOD_PHYS.e8382_s3681_r13144_p6266
mc20_13TeV.509752.MGPy8EG_FxFx_Wtaunu_L_3jets_HT2bias_CFilterBVeto.deriv.DAOD_PHYS.e8382_s3681_r13145_p6266
mc20_13TeV.509752.MGPy8EG_FxFx_Wtaunu_L_3jets_HT2bias_CFilterBVeto.deriv.DAOD_PHYS.e8382_s3681_r13167_p6266

mc20_13TeV.509753.MGPy8EG_FxFx_Wtaunu_L_3jets_HT2bias_CVetoBVeto.deriv.DAOD_PHYS.e8382_s3681_r13144_p6266
mc20_13TeV.509753.MGPy8EG_FxFx_Wtaunu_L_3jets_HT2bias_CVetoBVeto.deriv.DAOD_PHYS.e8382_s3681_r13145_p6266
mc20_13TeV.509753.MGPy8EG_FxFx_Wtaunu_L_3jets_HT2bias_CVetoBVeto.deriv.DAOD_PHYS.e8382_s3681_r13167_p6266

mc20_13TeV.509754.MGPy8EG_FxFx_Wtaunu_H_3jets_HT2bias_BFilter.deriv.DAOD_PHYS.e8382_s3681_r13144_p6266
mc20_13TeV.509754.MGPy8EG_FxFx_Wtaunu_H_3jets_HT2bias_BFilter.deriv.DAOD_PHYS.e8382_s3681_r13145_p6266
mc20_13TeV.509754.MGPy8EG_FxFx_Wtaunu_H_3jets_HT2bias_BFilter.deriv.DAOD_PHYS.e8382_s3681_r13167_p6266

mc20_13TeV.509755.MGPy8EG_FxFx_Wtaunu_H_3jets_HT2bias_CFilterBVeto.deriv.DAOD_PHYS.e8382_s3681_r13144_p6266
mc20_13TeV.509755.MGPy8EG_FxFx_Wtaunu_H_3jets_HT2bias_CFilterBVeto.deriv.DAOD_PHYS.e8382_s3681_r13145_p6266
mc20_13TeV.509755.MGPy8EG_FxFx_Wtaunu_H_3jets_HT2bias_CFilterBVeto.deriv.DAOD_PHYS.e8382_s3681_r13167_p6266

mc20_13TeV.509756.MGPy8EG_FxFx_Wtaunu_H_3jets_HT2bias_CVetoBVeto.deriv.DAOD_PHYS.e8382_s3681_r13144_p6266
mc20_13TeV.509756.MGPy8EG_FxFx_Wtaunu_H_3jets_HT2bias_CVetoBVeto.deriv.DAOD_PHYS.e8382_s3681_r13145_p6266
mc20_13TeV.509756.MGPy8EG_FxFx_Wtaunu_H_3jets_HT2bias_CVetoBVeto.deriv.DAOD_PHYS.e8382_s3681_r13167_p6266
