mc20_13TeV.700338.Sh_2211_Wenu_maxHTpTV2_BFilter.deriv.DAOD_PHYSLITE.e8351_s3681_r13144_p6266
mc20_13TeV.700338.Sh_2211_Wenu_maxHTpTV2_BFilter.deriv.DAOD_PHYSLITE.e8351_s3681_r13145_p6266
mc20_13TeV.700338.Sh_2211_Wenu_maxHTpTV2_BFilter.deriv.DAOD_PHYSLITE.e8351_s3681_r13167_p6266

mc20_13TeV.700339.Sh_2211_Wenu_maxHTpTV2_CFilterBVeto.deriv.DAOD_PHYSLITE.e8351_s3681_r13144_p6266
mc20_13TeV.700339.Sh_2211_Wenu_maxHTpTV2_CFilterBVeto.deriv.DAOD_PHYSLITE.e8351_s3681_r13145_p6266
mc20_13TeV.700339.Sh_2211_Wenu_maxHTpTV2_CFilterBVeto.deriv.DAOD_PHYSLITE.e8351_s3681_r13167_p6266

mc20_13TeV.700340.Sh_2211_Wenu_maxHTpTV2_CVetoBVeto.deriv.DAOD_PHYSLITE.e8351_s3681_r13144_p6266
mc20_13TeV.700340.Sh_2211_Wenu_maxHTpTV2_CVetoBVeto.deriv.DAOD_PHYSLITE.e8351_s3681_r13145_p6266
mc20_13TeV.700340.Sh_2211_Wenu_maxHTpTV2_CVetoBVeto.deriv.DAOD_PHYSLITE.e8351_s3681_r13167_p6266

mc20_13TeV.700341.Sh_2211_Wmunu_maxHTpTV2_BFilter.deriv.DAOD_PHYSLITE.e8351_s3681_r13144_p6266
mc20_13TeV.700341.Sh_2211_Wmunu_maxHTpTV2_BFilter.deriv.DAOD_PHYSLITE.e8351_s3681_r13145_p6266
mc20_13TeV.700341.Sh_2211_Wmunu_maxHTpTV2_BFilter.deriv.DAOD_PHYSLITE.e8351_s3681_r13167_p6266

mc20_13TeV.700342.Sh_2211_Wmunu_maxHTpTV2_CFilterBVeto.deriv.DAOD_PHYSLITE.e8351_s3681_r13144_p6266
mc20_13TeV.700342.Sh_2211_Wmunu_maxHTpTV2_CFilterBVeto.deriv.DAOD_PHYSLITE.e8351_s3681_r13145_p6266
mc20_13TeV.700342.Sh_2211_Wmunu_maxHTpTV2_CFilterBVeto.deriv.DAOD_PHYSLITE.e8351_s3681_r13167_p6266

mc20_13TeV.700343.Sh_2211_Wmunu_maxHTpTV2_CVetoBVeto.deriv.DAOD_PHYSLITE.e8351_s3681_r13144_p6266
mc20_13TeV.700343.Sh_2211_Wmunu_maxHTpTV2_CVetoBVeto.deriv.DAOD_PHYSLITE.e8351_s3681_r13145_p6266
mc20_13TeV.700343.Sh_2211_Wmunu_maxHTpTV2_CVetoBVeto.deriv.DAOD_PHYSLITE.e8351_s3681_r13167_p6266

mc20_13TeV.700344.Sh_2211_Wtaunu_L_maxHTpTV2_BFilter.deriv.DAOD_PHYSLITE.e8351_s3681_r13144_p6266
mc20_13TeV.700344.Sh_2211_Wtaunu_L_maxHTpTV2_BFilter.deriv.DAOD_PHYSLITE.e8351_s3681_r13145_p6266
mc20_13TeV.700344.Sh_2211_Wtaunu_L_maxHTpTV2_BFilter.deriv.DAOD_PHYSLITE.e8351_s3681_r13167_p6266

mc20_13TeV.700345.Sh_2211_Wtaunu_L_maxHTpTV2_CFilterBVeto.deriv.DAOD_PHYSLITE.e8351_s3681_r13144_p6266
mc20_13TeV.700345.Sh_2211_Wtaunu_L_maxHTpTV2_CFilterBVeto.deriv.DAOD_PHYSLITE.e8351_s3681_r13145_p6266
mc20_13TeV.700345.Sh_2211_Wtaunu_L_maxHTpTV2_CFilterBVeto.deriv.DAOD_PHYSLITE.e8351_s3681_r13167_p6266

mc20_13TeV.700346.Sh_2211_Wtaunu_L_maxHTpTV2_CVetoBVeto.deriv.DAOD_PHYSLITE.e8351_s3681_r13144_p6266
mc20_13TeV.700346.Sh_2211_Wtaunu_L_maxHTpTV2_CVetoBVeto.deriv.DAOD_PHYSLITE.e8351_s3681_r13145_p6266
mc20_13TeV.700346.Sh_2211_Wtaunu_L_maxHTpTV2_CVetoBVeto.deriv.DAOD_PHYSLITE.e8351_s3681_r13167_p6266

mc20_13TeV.700347.Sh_2211_Wtaunu_H_maxHTpTV2_BFilter.deriv.DAOD_PHYSLITE.e8351_s3681_r13144_p6266
mc20_13TeV.700347.Sh_2211_Wtaunu_H_maxHTpTV2_BFilter.deriv.DAOD_PHYSLITE.e8351_s3681_r13145_p6266
mc20_13TeV.700347.Sh_2211_Wtaunu_H_maxHTpTV2_BFilter.deriv.DAOD_PHYSLITE.e8351_s3681_r13167_p6266

mc20_13TeV.700348.Sh_2211_Wtaunu_H_maxHTpTV2_CFilterBVeto.deriv.DAOD_PHYSLITE.e8351_s3681_r13144_p6266
mc20_13TeV.700348.Sh_2211_Wtaunu_H_maxHTpTV2_CFilterBVeto.deriv.DAOD_PHYSLITE.e8351_s3681_r13145_p6266
mc20_13TeV.700348.Sh_2211_Wtaunu_H_maxHTpTV2_CFilterBVeto.deriv.DAOD_PHYSLITE.e8351_s3681_r13167_p6266

mc20_13TeV.700349.Sh_2211_Wtaunu_H_maxHTpTV2_CVetoBVeto.deriv.DAOD_PHYSLITE.e8351_s3681_r13144_p6266
mc20_13TeV.700349.Sh_2211_Wtaunu_H_maxHTpTV2_CVetoBVeto.deriv.DAOD_PHYSLITE.e8351_s3681_r13145_p6266
mc20_13TeV.700349.Sh_2211_Wtaunu_H_maxHTpTV2_CVetoBVeto.deriv.DAOD_PHYSLITE.e8351_s3681_r13167_p6266

mc20_13TeV.700362.Sh_2211_Wenu2jets_Min_N_TChannel.deriv.DAOD_PHYSLITE.e8357_s3681_r13144_p6266
mc20_13TeV.700362.Sh_2211_Wenu2jets_Min_N_TChannel.deriv.DAOD_PHYSLITE.e8357_s3681_r13145_p6266
mc20_13TeV.700362.Sh_2211_Wenu2jets_Min_N_TChannel.deriv.DAOD_PHYSLITE.e8357_s3681_r13167_p6266

mc20_13TeV.700363.Sh_2211_Wmunu2jets_Min_N_TChannel.deriv.DAOD_PHYSLITE.e8357_s3681_r13144_p6266
mc20_13TeV.700363.Sh_2211_Wmunu2jets_Min_N_TChannel.deriv.DAOD_PHYSLITE.e8357_s3681_r13145_p6266
mc20_13TeV.700363.Sh_2211_Wmunu2jets_Min_N_TChannel.deriv.DAOD_PHYSLITE.e8357_s3681_r13167_p6266

mc20_13TeV.700364.Sh_2211_Wtaunu2jets_Min_N_TChannel.deriv.DAOD_PHYSLITE.e8357_s3681_r13144_p6266
mc20_13TeV.700364.Sh_2211_Wtaunu2jets_Min_N_TChannel.deriv.DAOD_PHYSLITE.e8357_s3681_r13145_p6266
mc20_13TeV.700364.Sh_2211_Wtaunu2jets_Min_N_TChannel.deriv.DAOD_PHYSLITE.e8357_s3681_r13167_p6266

mc20_13TeV.700320.Sh_2211_Zee_maxHTpTV2_BFilter.deriv.DAOD_PHYSLITE.e8351_s3681_r13144_p6266
mc20_13TeV.700320.Sh_2211_Zee_maxHTpTV2_BFilter.deriv.DAOD_PHYSLITE.e8351_s3681_r13145_p6266
mc20_13TeV.700320.Sh_2211_Zee_maxHTpTV2_BFilter.deriv.DAOD_PHYSLITE.e8351_s3681_r13167_p6266

mc20_13TeV.700321.Sh_2211_Zee_maxHTpTV2_CFilterBVeto.deriv.DAOD_PHYSLITE.e8351_s3681_r13144_p6266
mc20_13TeV.700321.Sh_2211_Zee_maxHTpTV2_CFilterBVeto.deriv.DAOD_PHYSLITE.e8351_s3681_r13145_p6266
mc20_13TeV.700321.Sh_2211_Zee_maxHTpTV2_CFilterBVeto.deriv.DAOD_PHYSLITE.e8351_s3681_r13167_p6266

mc20_13TeV.700322.Sh_2211_Zee_maxHTpTV2_CVetoBVeto.deriv.DAOD_PHYSLITE.e8351_s3681_r13144_p6266
mc20_13TeV.700322.Sh_2211_Zee_maxHTpTV2_CVetoBVeto.deriv.DAOD_PHYSLITE.e8351_s3681_r13145_p6266
mc20_13TeV.700322.Sh_2211_Zee_maxHTpTV2_CVetoBVeto.deriv.DAOD_PHYSLITE.e8351_s3681_r13167_p6266

mc20_13TeV.700323.Sh_2211_Zmumu_maxHTpTV2_BFilter.deriv.DAOD_PHYSLITE.e8351_s3681_r13144_p6266
mc20_13TeV.700323.Sh_2211_Zmumu_maxHTpTV2_BFilter.deriv.DAOD_PHYSLITE.e8351_s3681_r13145_p6266
mc20_13TeV.700323.Sh_2211_Zmumu_maxHTpTV2_BFilter.deriv.DAOD_PHYSLITE.e8351_s3681_r13167_p6266

mc20_13TeV.700324.Sh_2211_Zmumu_maxHTpTV2_CFilterBVeto.deriv.DAOD_PHYSLITE.e8351_s3681_r13144_p6266
mc20_13TeV.700324.Sh_2211_Zmumu_maxHTpTV2_CFilterBVeto.deriv.DAOD_PHYSLITE.e8351_s3681_r13145_p6266
mc20_13TeV.700324.Sh_2211_Zmumu_maxHTpTV2_CFilterBVeto.deriv.DAOD_PHYSLITE.e8351_s3681_r13167_p6266

mc20_13TeV.700325.Sh_2211_Zmumu_maxHTpTV2_CVetoBVeto.deriv.DAOD_PHYSLITE.e8351_s3681_r13144_p6266
mc20_13TeV.700325.Sh_2211_Zmumu_maxHTpTV2_CVetoBVeto.deriv.DAOD_PHYSLITE.e8351_s3681_r13145_p6266
mc20_13TeV.700325.Sh_2211_Zmumu_maxHTpTV2_CVetoBVeto.deriv.DAOD_PHYSLITE.e8351_s3681_r13167_p6266

mc20_13TeV.700792.Sh_2214_Ztautau_maxHTpTV2_BFilter.deriv.DAOD_PHYSLITE.e8527_s3681_r13144_p6266
mc20_13TeV.700792.Sh_2214_Ztautau_maxHTpTV2_BFilter.deriv.DAOD_PHYSLITE.e8527_s3681_r13145_p6266
mc20_13TeV.700792.Sh_2214_Ztautau_maxHTpTV2_BFilter.deriv.DAOD_PHYSLITE.e8527_s3681_r13167_p6266

mc20_13TeV.700793.Sh_2214_Ztautau_maxHTpTV2_CFilterBVeto.deriv.DAOD_PHYSLITE.e8527_s3681_r13144_p6266
mc20_13TeV.700793.Sh_2214_Ztautau_maxHTpTV2_CFilterBVeto.deriv.DAOD_PHYSLITE.e8527_s3681_r13145_p6266
mc20_13TeV.700793.Sh_2214_Ztautau_maxHTpTV2_CFilterBVeto.deriv.DAOD_PHYSLITE.e8527_s3681_r13167_p6266

mc20_13TeV.700794.Sh_2214_Ztautau_maxHTpTV2_CVetoBVeto.deriv.DAOD_PHYSLITE.e8527_s3681_r13144_p6266
mc20_13TeV.700794.Sh_2214_Ztautau_maxHTpTV2_CVetoBVeto.deriv.DAOD_PHYSLITE.e8527_s3681_r13145_p6266
mc20_13TeV.700794.Sh_2214_Ztautau_maxHTpTV2_CVetoBVeto.deriv.DAOD_PHYSLITE.e8527_s3681_r13167_p6266

mc20_13TeV.700358.Sh_2211_Zee2jets_Min_N_TChannel.deriv.DAOD_PHYSLITE.e8357_s3681_r13144_p6266
mc20_13TeV.700358.Sh_2211_Zee2jets_Min_N_TChannel.deriv.DAOD_PHYSLITE.e8357_s3681_r13145_p6266
mc20_13TeV.700358.Sh_2211_Zee2jets_Min_N_TChannel.deriv.DAOD_PHYSLITE.e8357_s3681_r13167_p6266

mc20_13TeV.700359.Sh_2211_Zmm2jets_Min_N_TChannel.deriv.DAOD_PHYSLITE.e8357_s3681_r13144_p6266
mc20_13TeV.700359.Sh_2211_Zmm2jets_Min_N_TChannel.deriv.DAOD_PHYSLITE.e8357_s3681_r13145_p6266
mc20_13TeV.700359.Sh_2211_Zmm2jets_Min_N_TChannel.deriv.DAOD_PHYSLITE.e8357_s3681_r13167_p6266

mc20_13TeV.700360.Sh_2211_Ztt2jets_Min_N_TChannel.deriv.DAOD_PHYSLITE.e8357_s3681_r13144_p6266
mc20_13TeV.700360.Sh_2211_Ztt2jets_Min_N_TChannel.deriv.DAOD_PHYSLITE.e8357_s3681_r13145_p6266
mc20_13TeV.700360.Sh_2211_Ztt2jets_Min_N_TChannel.deriv.DAOD_PHYSLITE.e8357_s3681_r13167_p6266

mc20_13TeV.700467.Sh_2211_Zee_maxHTpTV2_m10_40_pT5_BFilter.deriv.DAOD_PHYSLITE.e8379_s3681_r13144_p6266
mc20_13TeV.700467.Sh_2211_Zee_maxHTpTV2_m10_40_pT5_BFilter.deriv.DAOD_PHYSLITE.e8379_s3681_r13145_p6266
mc20_13TeV.700467.Sh_2211_Zee_maxHTpTV2_m10_40_pT5_BFilter.deriv.DAOD_PHYSLITE.e8379_s3681_r13167_p6266

mc20_13TeV.700468.Sh_2211_Zee_maxHTpTV2_m10_40_pT5_CFilterBVeto.deriv.DAOD_PHYSLITE.e8379_s3681_r13144_p6266
mc20_13TeV.700468.Sh_2211_Zee_maxHTpTV2_m10_40_pT5_CFilterBVeto.deriv.DAOD_PHYSLITE.e8379_s3681_r13145_p6266
mc20_13TeV.700468.Sh_2211_Zee_maxHTpTV2_m10_40_pT5_CFilterBVeto.deriv.DAOD_PHYSLITE.e8379_s3681_r13167_p6266

mc20_13TeV.700469.Sh_2211_Zee_maxHTpTV2_m10_40_pT5_CVetoBVeto.deriv.DAOD_PHYSLITE.e8379_s3681_r13144_p6266
mc20_13TeV.700469.Sh_2211_Zee_maxHTpTV2_m10_40_pT5_CVetoBVeto.deriv.DAOD_PHYSLITE.e8379_s3681_r13145_p6266
mc20_13TeV.700469.Sh_2211_Zee_maxHTpTV2_m10_40_pT5_CVetoBVeto.deriv.DAOD_PHYSLITE.e8379_s3681_r13167_p6266

mc20_13TeV.700470.Sh_2211_Zmumu_maxHTpTV2_m10_40_pT5_BFilter.deriv.DAOD_PHYSLITE.e8379_s3681_r13144_p6266
mc20_13TeV.700470.Sh_2211_Zmumu_maxHTpTV2_m10_40_pT5_BFilter.deriv.DAOD_PHYSLITE.e8379_s3681_r13145_p6266
mc20_13TeV.700470.Sh_2211_Zmumu_maxHTpTV2_m10_40_pT5_BFilter.deriv.DAOD_PHYSLITE.e8379_s3681_r13167_p6266

mc20_13TeV.700471.Sh_2211_Zmumu_maxHTpTV2_m10_40_pT5_CFilterBVeto.deriv.DAOD_PHYSLITE.e8379_s3681_r13144_p6266
mc20_13TeV.700471.Sh_2211_Zmumu_maxHTpTV2_m10_40_pT5_CFilterBVeto.deriv.DAOD_PHYSLITE.e8379_s3681_r13145_p6266
mc20_13TeV.700471.Sh_2211_Zmumu_maxHTpTV2_m10_40_pT5_CFilterBVeto.deriv.DAOD_PHYSLITE.e8379_s3681_r13167_p6266

mc20_13TeV.700472.Sh_2211_Zmumu_maxHTpTV2_m10_40_pT5_CVetoBVeto.deriv.DAOD_PHYSLITE.e8379_s3681_r13144_p6266
mc20_13TeV.700472.Sh_2211_Zmumu_maxHTpTV2_m10_40_pT5_CVetoBVeto.deriv.DAOD_PHYSLITE.e8379_s3681_r13145_p6266
mc20_13TeV.700472.Sh_2211_Zmumu_maxHTpTV2_m10_40_pT5_CVetoBVeto.deriv.DAOD_PHYSLITE.e8379_s3681_r13167_p6266

mc20_13TeV.700901.Sh_2214_Ztt_maxHTpTV2_Mll10_40_BFilter.deriv.DAOD_PHYSLITE.e8536_s3681_r13144_p6266
mc20_13TeV.700901.Sh_2214_Ztt_maxHTpTV2_Mll10_40_BFilter.deriv.DAOD_PHYSLITE.e8536_s3681_r13145_p6266
mc20_13TeV.700901.Sh_2214_Ztt_maxHTpTV2_Mll10_40_BFilter.deriv.DAOD_PHYSLITE.e8536_s3681_r13167_p6266

mc20_13TeV.700902.Sh_2214_Ztt_maxHTpTV2_Mll10_40_CFilterBVeto.deriv.DAOD_PHYSLITE.e8536_s3681_r13144_p6266
mc20_13TeV.700902.Sh_2214_Ztt_maxHTpTV2_Mll10_40_CFilterBVeto.deriv.DAOD_PHYSLITE.e8536_s3681_r13145_p6266
mc20_13TeV.700902.Sh_2214_Ztt_maxHTpTV2_Mll10_40_CFilterBVeto.deriv.DAOD_PHYSLITE.e8536_s3681_r13167_p6266

mc20_13TeV.700903.Sh_2214_Ztt_maxHTpTV2_Mll10_40_CVetoBVeto.deriv.DAOD_PHYSLITE.e8536_s3681_r13144_p6266
mc20_13TeV.700903.Sh_2214_Ztt_maxHTpTV2_Mll10_40_CVetoBVeto.deriv.DAOD_PHYSLITE.e8536_s3681_r13145_p6266
mc20_13TeV.700903.Sh_2214_Ztt_maxHTpTV2_Mll10_40_CVetoBVeto.deriv.DAOD_PHYSLITE.e8536_s3681_r13167_p6266

